logResults/qrun_Part1.log
QuestaSim-64 qrun 2023.1 Utility 2023.01 Jan 23 2023
Start time: 17:03:54 on Jun 15,2024
qrun -batch -access=rw+/. -timescale 1ns/1ns -mfcu design.sv testbench.sv -voptargs="+acc=npr" -do " run -all; exit" 
Creating library 'qrun.out/work'.
QuestaSim-64 vlog 2023.1 Compiler 2023.01 Jan 23 2023
Start time: 17:03:54 on Jun 15,2024
vlog -timescale 1ns/1ns -mfcu design.sv testbench.sv -work qrun.out/work -csession=incr -writesessionid "+qrun.out/top_dus" -statslog qrun.out/stats_log 
-- Compiling module fp_mult
-- Compiling module normalize_mult
-- Compiling module round_mult
-- Compiling module exception_mult
-- Compiling module check_mult
-- Compiling module fp_mult_top
-- Compiling module test_status_bits
-- Compiling module test_status_z_combinations
-- Compiling module TestBench

Top level modules:
	TestBench
End time: 17:03:54 on Jun 15,2024, Elapsed time: 0:00:00
Errors: 0, Warnings: 0
QuestaSim-64 vopt 2023.1 Compiler 2023.01 Jan 23 2023
** Warning: (vopt-10587) Some optimizations are turned off because the +acc switch is in effect. This will cause your simulation to run slowly. Please use -access/-debug to maintain needed visibility.
Start time: 17:03:54 on Jun 15,2024
vopt -access=rw+/. -timescale 1ns/1ns -mfcu "+acc=npr" -findtoplevels /home/runner/qrun.out/work+0+ -work qrun.out/work -statslog qrun.out/stats_log -o qrun_opt 

Top level modules:
	TestBench

Analyzing design...
-- Loading module TestBench
-- Loading module fp_mult_top
-- Loading module fp_mult
-- Loading module normalize_mult
-- Loading module round_mult
-- Loading module exception_mult
-- Loading module check_mult
-- Loading module test_status_z_combinations
-- Loading module test_status_bits
Optimizing 9 design-units (inlining 0/9 module instances):
-- Optimizing module TestBench(fast)
-- Optimizing module check_mult(fast)
-- Optimizing module exception_mult(fast)
-- Optimizing module test_status_z_combinations(fast)
-- Optimizing module fp_mult(fast)
-- Optimizing module round_mult(fast)
-- Optimizing module normalize_mult(fast)
-- Optimizing module fp_mult_top(fast)
-- Optimizing module test_status_bits(fast)
Optimized design name is qrun_opt
End time: 17:03:54 on Jun 15,2024, Elapsed time: 0:00:00
Errors: 0, Warnings: 1
# vsim -batch -voptargs="+acc=npr" -lib qrun.out/work -do " run -all; exit" -statslog qrun.out/stats_log qrun_opt -appendlog -l qrun.log -csession=incr 
# Start time: 17:03:54 on Jun 15,2024
# //  Questa Sim-64
# //  Version 2023.1 linux_x86_64 Jan 23 2023
# //
# //  Copyright 1991-2023 Mentor Graphics Corporation
# //  All Rights Reserved.
# //
# //  QuestaSim and its associated documentation contain trade
# //  secrets and commercial or financial information that are the property of
# //  Mentor Graphics Corporation and are privileged, confidential,
# //  and exempt from disclosure under the Freedom of Information Act,
# //  5 U.S.C. Section 552. Furthermore, this information
# //  is prohibited from disclosure under the Trade Secrets Act,
# //  18 U.S.C. Section 1905.
# //
# Loading sv_std.std
# Loading work.TestBench(fast)
# Loading work.fp_mult_top(fast)
# Loading work.fp_mult(fast)
# Loading work.normalize_mult(fast)
# Loading work.round_mult(fast)
# Loading work.exception_mult(fast)
# Loading work.test_status_bits(fast)
# Loading work.test_status_z_combinations(fast)
# Loading work.check_mult(fast)
# 
# run -all
#          0   z result failed
#          0  clk=1 status=xxxxxxxx a=xxxxxxxxxxxxxxxxxxxxxxxxxxxxxxxx b=xxxxxxxxxxxxxxxxxxxxxxxxxxxxxxxx z=xxxxxxxxxxxxxxxxxxxxxxxxxxxxxxxx z_check=xxxxxxxxxxxxxxxxxxxxxxxxxxxxxxxx
#          0   z result calculated correct
#         16   status test PASS
#         16  clk=1 status=00000000 a=00101110010001011011001001111000 b=11010111101011101010111001010011 z=00000000000000000000000000000000 z_check=00000000000000000000000000000000
#         32   status test PASS
#         32  clk=1 status=00000001 a=00100110000011110110011100010101 b=00011110001110100100110101001010 z=00000000000000000000000000000000 z_check=00000000000000000000000000000000
#         32   z result calculated correct
#         32   p1 PASS
#         48   status test PASS
#         48  clk=1 status=00000000 a=01001011101001010100010011110111 b=01100001110110000010110010001101 z=11000110100001101110010111101101 z_check=11000110100001101110010111101101
#         48   z result calculated correct
#         64   status test PASS
#         64  clk=1 status=00100000 a=11110011001100011110001111101100 b=01010101100000100000110000010101 z=00000100110100001011100001100001 z_check=00000100110100001011100001100001
#         64   z result calculated correct
#         80   status test PASS
#         80  clk=1 status=00000000 a=11101001001100111111111111110110 b=11111011001100100101001100100110 z=01101110000010111000111011110011 z_check=01101110000010111000111011110011
#         80   z result calculated correct
#         96   status test PASS
#         96  clk=1 status=00010010 a=01001100110110010100110001001001 b=00010001110100111011010010101100 z=11111111100000000000000000000000 z_check=11111111100000000000000000000000
#         96   z result calculated correct
#         96   p2 PASS
#         96   p4 PASS
#        112   status test PASS
#        112  clk=1 status=00010010 a=00110111000000100110100110001110 b=11000111111111000010100001011010 z=01111111100000000000000000000000 z_check=01111111100000000000000000000000
#        112   z result calculated correct
#        112   p2 PASS
#        112   p4 PASS
#        128   status test PASS
#        128  clk=1 status=00000000 a=11110111010110010110011000011111 b=01100010100101110110111000110010 z=00011111001100111011001100111100 z_check=00011111001100111011001100111100
#        128   z result calculated correct
#        144   status test PASS
#        144  clk=1 status=00100000 a=11101010110000000110110101001110 b=11101110010110100011100000101101 z=10111111100000000111010001110110 z_check=10111111100000000111010001110110
#        144   z result calculated correct
#        160   status test PASS
#        160  clk=1 status=00010010 a=11111110111000011000111111111010 b=11110001010001101111111100000110 z=11111111100000000000000000000000 z_check=11111111100000000000000000000000
#        160   z result calculated correct
#        160   p2 PASS
#        160   p4 PASS
#        176   status test PASS
#        176  clk=1 status=00010010 a=00011111010001111000000000100101 b=00101000000100001101011101100011 z=01111111100000000000000000000000 z_check=01111111100000000000000000000000
#        176   p2 PASS
#        176   p4 PASS
#        192   status test PASS
#        192  clk=1 status=00010010 a=01011100010111001111000110010000 b=10110010111101111110100011011000 z=01111111100000000000000000000000 z_check=01111111100000000000000000000000
#        192   z result calculated correct
#        192   p2 PASS
#        192   p4 PASS
#        208   status test PASS
#        208  clk=1 status=00000000 a=10101101111110110111011110110100 b=10110010100010110001110110010001 z=00000111111000011011111111011101 z_check=00000111111000011011111111011101
#        208   z result calculated correct
#        224   status test PASS
#        224  clk=1 status=00100000 a=00111111001000001100011001111100 b=10010111001010111010110100010110 z=11001111110101011111011000000111 z_check=11001111110101011111011000000111
#        224   z result calculated correct
#        240   status test PASS
#        240  clk=1 status=00000000 a=01001101011100010101000101000111 b=00010110001100111110000101100010 z=00100001000010001010011100001010 z_check=00100001000010001010011100001010
#        240   z result calculated correct
#        256   status test PASS
#        256  clk=1 status=00000000 a=01101010011001000100011111000111 b=01000000011000010000100010011010 z=10010110110101111010001010010010 z_check=10010110110101111010001010010010
#        256   z result calculated correct
#        272   status test PASS
#        272  clk=1 status=00000000 a=11100010101100100011110011111101 b=00011110110100111111110101011100 z=00100100001010011001000001001001 z_check=00100100001010011001000001001001
#        272   z result calculated correct
#        288   status test PASS
#        288  clk=1 status=00000000 a=01000111100111010110001110101100 b=01101101010010100111101010111011 z=01101011010010001010101011000001 z_check=01101011010010001010101011000001
#        288   z result calculated correct
#        304   status test PASS
#        304  clk=1 status=00000000 a=00010010011111001111110111011010 b=11011100010010000011010110100110 z=11000010000100111001100010101011 z_check=11000010000100111001100010101011
#        304   z result calculated correct
#        320   status test PASS
#        320  clk=1 status=00100000 a=10000010101110010010100101000101 b=11010011011010101011110000000001 z=01110101011110001111100000110100 z_check=01110101011110001111100000110100
#        320   z result calculated correct
#        336   status test PASS
#        336  clk=1 status=00000000 a=11111101011100111001111110101110 b=10010111010001011100011011101101 z=10101111010001011101101101010111 z_check=10101111010001011101101101010111
#        336   z result calculated correct
#        352   status test PASS
#        352  clk=1 status=00000000 a=01111110101001101101010100111001 b=10100000001101101110011111100000 z=00010110101010011100011110110100 z_check=00010110101010011100011110110100
#        352   z result calculated correct
#        368   status test PASS
#        368  clk=1 status=00000000 a=00001111001110100111100100010010 b=01001100001000100101000011111010 z=01010101001111000011011100110000 z_check=01010101001111000011011100110000
#        368   z result calculated correct
#        384   status test PASS
#        384  clk=1 status=00000000 a=10111101111011101110101001000110 b=10101000101100010101010011011010 z=11011111011011100110010101100110 z_check=11011111011011100110010101100110
#        384   z result calculated correct
#        400   status test PASS
#        400  clk=1 status=00000000 a=11000100111101011010101111110101 b=10000101101010100101111110011110 z=00011011111011000111011100110011 z_check=00011011111011000111011100110011
#        400   z result calculated correct
#        416   status test PASS
#        416  clk=1 status=00000000 a=00101101001101010010011010111101 b=11001100101101001001101110100011 z=00100111001001010111111100101011 z_check=00100111001001010111111100101011
#        416   z result calculated correct
#        432   status test PASS
#        432  clk=1 status=00000000 a=11010110001101000101000100010011 b=00010010110000110100011101000001 z=00001011001000110111111111110011 z_check=00001011001000110111111111110011
#        432   z result calculated correct
#        448   status test PASS
#        448  clk=1 status=00000000 a=00000000010001000000001101001111 b=01100101011001111000100001000010 z=10111010011111111001101010111101 z_check=10111010011111111001101010111101
#        448   z result calculated correct
#        464   status test PASS
#        464  clk=1 status=00000000 a=10110101111000000110011011100010 b=11011101110010000111101110111011 z=10101001100010011000101111110010 z_check=10101001100010011000101111110010
#        464   z result calculated correct
#        480   status test PASS
#        480  clk=1 status=00000001 a=10010110010100011100101000011100 b=01010100111000101111100110111011 z=00000000000000000000000000000000 z_check=00000000000000000000000000000000
#        480   z result calculated correct
#        480   p1 PASS
#        496   status test PASS
#        496  clk=1 status=00000000 a=00111100011111100010101100010001 b=00111110101111101000000010010110 z=01010100001011111011110011010110 z_check=01010100001011111011110011010110
#        496   z result calculated correct
#        512   status test PASS
#        512  clk=1 status=00000000 a=01110000001101110100010010010011 b=01101010011001110001100011110011 z=10101011101110100000000100010100 z_check=10101011101110100000000100010100
#        512   z result calculated correct
#        528   status test PASS
#        528  clk=1 status=00000000 a=01010011011101111000000011110000 b=01001010010011010111011011111000 z=00111011101111010010001110100001 z_check=00111011101111010010001110100001
#        528   z result calculated correct
#        544   status test PASS
#        544  clk=1 status=00010010 a=11110011000110001010100101010011 b=11111000001111010100010011001001 z=01111111100000000000000000000000 z_check=01111111100000000000000000000000
#        544   z result calculated correct
#        544   p2 PASS
#        544   p4 PASS
#        560   status test PASS
#        560  clk=1 status=00100000 a=10010101111100100001011110011101 b=11101111001111110001001110011001 z=01011110010001101010010101000101 z_check=01011110010001101010010101000101
#        560   z result calculated correct
#        576   status test PASS
#        576  clk=1 status=00010010 a=00110001001000101101111110111100 b=11000001000110010000110011110111 z=01111111100000000000000000000000 z_check=01111111100000000000000000000000
#        576   z result calculated correct
#        576   p2 PASS
#        576   p4 PASS
#        592   status test PASS
#        592  clk=1 status=00000000 a=11011001010111011010000101100011 b=01100111001111111010011100110111 z=01000101101101001011001000100111 z_check=01000101101101001011001000100111
#        592   z result calculated correct
#        608   status test PASS
#        608  clk=1 status=00000000 a=01101010101001100011001101111111 b=01111011011101100100101010001011 z=10110010110000101011111111101110 z_check=10110010110000101011111111101110
#        608   z result calculated correct
#        624   status test PASS
#        624  clk=1 status=00010010 a=01010111000000100000010010011111 b=10101000101000001010101100010000 z=11111111100000000000000000000000 z_check=11111111100000000000000000000000
#        624   z result calculated correct
#        624   p2 PASS
#        624   p4 PASS
#        640   status test PASS
#        640  clk=1 status=00010010 a=00110000000010011101001000011100 b=10001110011101001100111000010111 z=01111111100000000000000000000000 z_check=01111111100000000000000000000000
#        640   z result calculated correct
#        640   p2 PASS
#        640   p4 PASS
#        656   status test PASS
#        656  clk=1 status=00100000 a=10011010100001100111110011110101 b=11101100100101111101000010100011 z=11000000001000110011001110001001 z_check=11000000001000110011001110001001
#        656   z result calculated correct
#        672   status test PASS
#        672  clk=1 status=00001001 a=10111010000011101101000001101001 b=00100101100001001000100000010111 z=10000000000000000000000000000000 z_check=10000000000000000000000000000000
#        672   z result calculated correct
#        672   p1 PASS
#        672   p5 PASS
#        688   status test PASS
#        688  clk=1 status=00000000 a=11100010010111100100100010110111 b=01001010011000000110100101001100 z=01000111100111111000001010011111 z_check=01000111100111111000001010011111
#        688   z result calculated correct
#        704   status test PASS
#        704  clk=1 status=00000000 a=10111110110100110111011001010010 b=11100101001111111000001100011111 z=10100000000100111101111011000011 z_check=10100000000100111101111011000011
#        704   z result calculated correct
#        720   status test PASS
#        720  clk=1 status=00000000 a=10101111011011100011110000100000 b=11111110000011111111001000011101 z=11101101010000101101101100001110 z_check=11101101010000101101101100001110
#        720   z result calculated correct
#        736   status test PASS
#        736  clk=1 status=00000000 a=10011111011101110001000001011110 b=10011010010100111111010001111111 z=01100100100111100011000110010110 z_check=01100100100111100011000110010110
#        736   z result calculated correct
#        752   status test PASS
#        752  clk=1 status=00000000 a=01011001011101111011001000101111 b=00011100000000011110010000110100 z=01101110000001011111010011100110 z_check=01101110000001011111010011100110
#        752   z result calculated correct
#        768   status test PASS
#        768  clk=1 status=00001001 a=10101100101111010001010110101011 b=11100100010111010100000011000100 z=00000000000000000000000000000000 z_check=00000000000000000000000000000000
#        768   z result calculated correct
#        768   p1 PASS
#        768   p5 PASS
#        784   status test PASS
#        784  clk=1 status=00100000 a=01000111010001101001100110101000 b=01100111001000101001111011100001 z=00110101111110110101101100101101 z_check=00110101111110110101101100101101
#        784   z result calculated correct
#        800   status test PASS
#        800  clk=1 status=00000000 a=01100010010110101011011010000000 b=00101111010010010001111111000111 z=01010001101000110110101110001011 z_check=01010001101000110110101110001011
#        800   z result calculated correct
#        816   status test PASS
#        816  clk=1 status=00100000 a=10010101100010000100110001110101 b=01010010110001111010011001110111 z=01101110111111000101000011111011 z_check=01101110111111000101000011111011
#        816   z result calculated correct
#        832   status test PASS
#        832  clk=1 status=00000000 a=01101111111001011101101111111110 b=10010100010011110111101001110000 z=01010010001010111101010001110001 z_check=01010010001010111101010001110001
#        832   z result calculated correct
#        848   status test PASS
#        848  clk=1 status=00000000 a=01001001011010011110001101100111 b=10000100000010000101100110011110 z=10101000110101001001100000100000 z_check=10101000110101001001100000100000
#        848   z result calculated correct
#        864   status test PASS
#        864  clk=1 status=00000000 a=00101110111001001011101000101110 b=00011111101110101001100111111000 z=11000100101110100100101011010010 z_check=11000100101110100100101011010010
#        864   z result calculated correct
#        880   status test PASS
#        880  clk=1 status=00100000 a=00110100101001111000010010101010 b=11111010110000001110100100101011 z=10001101111110010010010101011110 z_check=10001101111110010010010101011110
#        880   z result calculated correct
#        896   status test PASS
#        896  clk=1 status=00100000 a=00010111011111011001111000011011 b=01000001101101111110001100100101 z=00001111001001101011100011010110 z_check=00001111001001101011100011010110
#        896   z result calculated correct
#        912   status test PASS
#        912  clk=1 status=00000000 a=11010110001110000011011100111110 b=11011001111000100011000000110111 z=11101111111111000111100000100111 z_check=11101111111111000111100000100111
#        912   z result calculated correct
#        928   status test PASS
#        928  clk=1 status=00000000 a=11110001001001110010111110111010 b=01110101000111101100000111011111 z=00011001101101100010110100001101 z_check=00011001101101100010110100001101
#        928   z result calculated correct
#        944   status test PASS
#        944  clk=1 status=00000000 a=11000100000001101001010101010010 b=10101010000000010001111000110111 z=01110000101000101100001101110111 z_check=01110000101000101100001101110111
#        944   z result calculated correct
#        960   status test PASS
#        960  clk=1 status=00010010 a=11001001100111010101101110000011 b=10100110010110010010110100100000 z=11111111100000000000000000000000 z_check=11111111100000000000000000000000
#        960   z result calculated correct
#        960   p2 PASS
#        960   p4 PASS
#        976   status test PASS
#        976  clk=1 status=00100000 a=11000011001111101001010010001111 b=01011100000101001101110110000010 z=00101110100001111100001001000001 z_check=00101110100001111100001001000001
#        976   z result calculated correct
#        992   status test PASS
#        992  clk=1 status=00000000 a=10100000001011011110101000010011 b=01010001011011111000011010001110 z=00110000100001010111111001001111 z_check=00110000100001010111111001001111
#        992   z result calculated correct
#       1008   status test PASS
#       1008  clk=1 status=00100000 a=10000100011111000110101111101010 b=00100110111000100101110111011111 z=11011111110111011010010110010011 z_check=11011111110111011010010110010011
#       1008   z result calculated correct
#       1024   status test PASS
#       1024  clk=1 status=00000000 a=11101011001110011100000100101101 b=01110110111100000001111001100111 z=10110010001000101011100011110001 z_check=10110010001000101011100011110001
#       1024   z result calculated correct
#       1040   status test PASS
#       1040  clk=1 status=00001001 a=10100110100011100011111111001001 b=11010100011110011010011010001011 z=10000000000000000000000000000000 z_check=10000000000000000000000000000000
#       1040   z result calculated correct
#       1040   p1 PASS
#       1040   p5 PASS
#       1056   status test PASS
#       1056  clk=1 status=00010010 a=00111101110001100001110000011000 b=01010110001000010111001110010001 z=11111111100000000000000000000000 z_check=11111111100000000000000000000000
#       1056   z result calculated correct
#       1056   p4 PASS
#       1056   p2 PASS
#       1072   status test PASS
#       1072  clk=1 status=00000000 a=11010101110100101011011001000101 b=10001111001000010010000100110010 z=00111011100010101011100010010101 z_check=00111011100010101011100010010101
#       1072   z result calculated correct
#       1088   status test PASS
#       1088  clk=1 status=00000000 a=00010111101100011110101001111100 b=10100101111000101110100000110100 z=01010100011110011110001000110100 z_check=01010100011110011110001000110100
#       1088   z result calculated correct
#       1104   status test PASS
#       1104  clk=1 status=00000000 a=11001111111011100100010001001010 b=01011001111001000000110010011111 z=00100101100001001001111111110100 z_check=00100101100001001001111111110100
#       1104   z result calculated correct
#       1120   status test PASS
#       1120  clk=1 status=00001001 a=10000011100010011110100001010110 b=00110111011011100101110111010011 z=10000000000000000000000000000000 z_check=10000000000000000000000000000000
#       1120   z result calculated correct
#       1120   p1 PASS
#       1120   p5 PASS
#       1136   status test PASS
#       1136  clk=1 status=00000000 a=01001101111110111101110011000101 b=11111101001111110011111011110011 z=11101010010101000100000010010001 z_check=11101010010101000100000010010001
#       1136   z result calculated correct
#       1152   status test PASS
#       1152  clk=1 status=00001001 a=11101011000001110000101011100000 b=10001101101111001001111010010101 z=10000000000000000000000000000000 z_check=10000000000000000000000000000000
#       1152   z result calculated correct
#       1152   p1 PASS
#       1152   p5 PASS
#       1168   status test PASS
#       1168  clk=1 status=00010010 a=00001111011111011000111101000000 b=01110111101001010001111111011110 z=11111111100000000000000000000000 z_check=11111111100000000000000000000000
#       1168   z result calculated correct
#       1168   p4 PASS
#       1168   p2 PASS
#       1184   status test PASS
#       1184  clk=1 status=00000000 a=01110110000111010111101011011101 b=00100001100100001010011011100001 z=00111001010001101111111101001000 z_check=00111001010001101111111101001000
#       1184   z result calculated correct
#       1200   status test PASS
#       1200  clk=1 status=00100000 a=00010000000000110100110100100000 b=01011000010111010001110000011111 z=01000111101000111000110011100100 z_check=01000111101000111000110011100100
#       1200   z result calculated correct
#       1216   status test PASS
#       1216  clk=1 status=00000000 a=11001000101111001000110100101100 b=01111011101110101110001001100000 z=01011000001100011111011110001001 z_check=01011000001100011111011110001001
#       1216   z result calculated correct
#       1232   status test PASS
#       1232  clk=1 status=00000000 a=01001111100110100110111101011000 b=10010110011110000001010011110111 z=00101000111000101101000000000010 z_check=00101000111000101101000000000010
#       1232   z result calculated correct
#       1248   status test PASS
#       1248  clk=1 status=00010010 a=10101000000000100110101101001111 b=10011000110101000010011000011010 z=11111111100000000000000000000000 z_check=11111111100000000000000000000000
#       1248   z result calculated correct
#       1248   p2 PASS
#       1248   p4 PASS
#       1264   status test PASS
#       1264  clk=1 status=00000000 a=00100111011011010001110110100100 b=11010111000000101110001010101001 z=10100110100101011010100010000011 z_check=10100110100101011010100010000011
#       1264   z result calculated correct
#       1280   status test PASS
#       1280  clk=1 status=00100000 a=11000000011111010001011000100011 b=11010111100110010100100011100100 z=00000001010110000010100010001101 z_check=00000001010110000010100010001101
#       1280   z result calculated correct
#       1296   status test PASS
#       1296  clk=1 status=00000000 a=00000100110010101110101111011101 b=01000110010011111000001010110101 z=10111110111100100111010111111100 z_check=10111110111100100111010111111100
#       1296   z result calculated correct
#       1312   status test PASS
#       1312  clk=1 status=00000000 a=00101110101001101110111110000000 b=10011000110110111110000100110011 z=01011000100101111000101001001011 z_check=01011000100101111000101001001011
#       1312   z result calculated correct
#       1328   status test PASS
#       1328  clk=1 status=00000000 a=11001000011011011101000101000110 b=11110011011100110011000000001101 z=00001011101001000111110001010011 z_check=00001011101001000111110001010011
#       1328   z result calculated correct
#       1344   status test PASS
#       1344  clk=1 status=00100000 a=10011101001100110001111100000101 b=11110000100000011010100110011011 z=10001000000011110110000110111100 z_check=10001000000011110110000110111100
#       1344   z result calculated correct
#       1360   status test PASS
#       1360  clk=1 status=00000000 a=01011111011110000001010101010110 b=01000110010110001101010101101000 z=01111100011000011110101001001001 z_check=01111100011000011110101001001001
#       1360   z result calculated correct
#       1376   status test PASS
#       1376  clk=1 status=00000000 a=00110010111000000010110010000100 b=00011010001010100011001100111010 z=01001110001101010111001010011011 z_check=01001110001101010111001010011011
#       1376   z result calculated correct
#       1392   status test PASS
#       1392  clk=1 status=00100000 a=11001101010001010000111001101111 b=00100100100001100111100011000011 z=01100110010100100010000011001111 z_check=01100110010100100010000011001111
#       1392   z result calculated correct
#       1408   status test PASS
#       1408  clk=1 status=00100000 a=01000011101100101100110010001010 b=11010110100101001011111110000101 z=00001101100101010000101001101011 z_check=00001101100101010000101001101011
#       1408   z result calculated correct
#       1424   status test PASS
#       1424  clk=1 status=00000000 a=00111011101001001001011001101100 b=00011101011110011101110100011000 z=10110010010011110000010100000110 z_check=10110010010011110000010100000110
#       1424   z result calculated correct
#       1440   status test PASS
#       1440  clk=1 status=00000000 a=00111110100101010011101110100111 b=00100101100010000000110100010101 z=11011010110011111100100000000111 z_check=11011010110011111100100000000111
#       1440   z result calculated correct
#       1456   status test PASS
#       1456  clk=1 status=00100000 a=00110001011000010001010001110110 b=00110011000110101101111111011111 z=00011001101000001010010001110100 z_check=00011001101000001010010001110100
#       1456   z result calculated correct
#       1472   status test PASS
#       1472  clk=1 status=00000000 a=01100110010100001110011111100101 b=10011110001000101000100111000011 z=00100100100111101001111010100010 z_check=00100100100111101001111010100010
#       1472   z result calculated correct
#       1488   status test PASS
#       1488  clk=1 status=00000000 a=11111010110001111100001100000111 b=10011110001110001110111001111011 z=00100101000010000010101100100100 z_check=00100101000010000010101100100100
#       1488   z result calculated correct
#       1504   status test PASS
#       1504  clk=1 status=00000000 a=11101000011100010011001000000001 b=10011011100100110001100100010010 z=11000101000001001010001100101010 z_check=11000101000001001010001100101010
#       1504   z result calculated correct
#       1520   status test PASS
#       1520  clk=1 status=00000000 a=01101001000011000011001000101111 b=11101000000011001010110100000010 z=01011001100100000100111001000100 z_check=01011001100100000100111001000100
#       1520   z result calculated correct
#       1536   status test PASS
#       1536  clk=1 status=00000000 a=10001000010000001001100011010101 b=01011011111101000000000001111101 z=01000100100010101001011101010101 z_check=01000100100010101001011101010101
#       1536   z result calculated correct
#       1552   status test PASS
#       1552  clk=1 status=00010010 a=11110000111100101000111001111010 b=00010001110011000101010000100011 z=11111111100000000000000000000000 z_check=11111111100000000000000000000000
#       1552   z result calculated correct
#       1552   p2 PASS
#       1552   p4 PASS
#       1568   status test PASS
#       1568  clk=1 status=00000000 a=00010000100011010001011011111101 b=01011111000010100110111010010001 z=10100100101101111001001000001001 z_check=10100100101101111001001000001001
#       1568   z result calculated correct
#       1584   status test PASS
#       1584  clk=1 status=00000000 a=10000110101010011000000100010110 b=10010001111000111011001100111111 z=11000011010000011001100101000001 z_check=11000011010000011001100101000001
#       1584   z result calculated correct
#       1600   status test PASS
#       1600  clk=1 status=00000000 a=10001100110011011000011011111101 b=10111000010100101100001111010111 z=00110000000110001001011010101000 z_check=00110000000110001001011010101000
#       1600   z result calculated correct
#       1616   status test PASS
#       1616  clk=1 status=00001001 a=01101010011001000101100101101000 b=11101100001110100010010100011011 z=00000000000000000000000000000000 z_check=00000000000000000000000000000000
#       1616   z result calculated correct
#       1616   p1 PASS
#       1616   p5 PASS
#       1632   status test PASS
#       1632  clk=1 status=00000000 a=11011011011001011010111011101010 b=00000101000100110100011011100011 z=00000101101010010011010111110110 z_check=00000101101010010011010111110110
#       1632   z result calculated correct
#       1648   status test PASS
#       1648  clk=1 status=00010010 a=10000100110111111011100111000110 b=11010000011001000100001000001000 z=11111111100000000000000000000000 z_check=11111111100000000000000000000000
#       1648   z result calculated correct
#       1648   p2 PASS
#       1648   p4 PASS
#       1664   status test PASS
#       1664  clk=1 status=00000000 a=11001110011011100100000110011100 b=00001111111011111101100100011010 z=10100001000001000010001100001010 z_check=10100001000001000010001100001010
#       1664   z result calculated correct
#       1680   status test PASS
#       1680  clk=1 status=00100000 a=11011011101100010110110100000001 b=11001110011110110010010010000101 z=00010101110001110111101100101001 z_check=00010101110001110111101100101001
#       1680   z result calculated correct
#       1696   status test PASS
#       1696  clk=1 status=00100000 a=01000101110111011101111100010011 b=01100110001011111011101011001000 z=10011110110111110011100101001110 z_check=10011110110111110011100101001110
#       1696   z result calculated correct
#       1712   status test PASS
#       1712  clk=1 status=00000000 a=00001110101111110110001110110101 b=00000001000111110011100111111100 z=01101010101011100000111100101111 z_check=01101010101011100000111100101111
#       1712   z result calculated correct
#       1728   status test PASS
#       1728  clk=1 status=00100000 a=11101100011110111000101110010001 b=10011011000101001111110101110010 z=01101100100110000100110101011111 z_check=01101100100110000100110101011111
#       1728   z result calculated correct
#       1744   status test PASS
#       1744  clk=1 status=00001001 a=01011000000011110000000110011011 b=11100111111011010011100011101011 z=00000000000000000000000000000000 z_check=00000000000000000000000000000000
#       1744   z result calculated correct
#       1744   p1 PASS
#       1744   p5 PASS
#       1760   status test PASS
#       1760  clk=1 status=00000000 a=00100000111110111100110101110101 b=01011011010111000000101000100000 z=01001000000100100110010110111001 z_check=01001000000100100110010110111001
#       1760   z result calculated correct
#       1776   status test PASS
#       1776  clk=1 status=00010010 a=10011011011000000011000010111110 b=00011100011110000111111010100100 z=11111111100000000000000000000000 z_check=11111111100000000000000000000000
#       1776   z result calculated correct
#       1776   p2 PASS
#       1776   p4 PASS
#       1792   status test PASS
#       1792  clk=1 status=00100000 a=01000101110011010110101101000101 b=11011011111011011111001011000001 z=00111100110110000110111010000110 z_check=00111100110110000110111010000110
#       1792   z result calculated correct
#       1808   status test PASS
#       1808  clk=1 status=00001001 a=10110000000011110010000111010000 b=11000000000110011001111101111000 z=10000000000000000000000000000000 z_check=10000000000000000000000000000000
#       1808   z result calculated correct
#       1808   p1 PASS
#       1808   p5 PASS
#       1824   status test PASS
#       1824  clk=1 status=00000000 a=10010010000111110001011110010001 b=01000001110110111000011100100111 z=11100010001111101110111100011001 z_check=11100010001111101110111100011001
#       1824   z result calculated correct
#       1840   status test PASS
#       1840  clk=1 status=00000000 a=11011000011111100000001101011011 b=11011110111011100101110111111010 z=00110000101010111100100010111101 z_check=00110000101010111100100010111101
#       1840   z result calculated correct
#       1856   status test PASS
#       1856  clk=1 status=00000000 a=10101110110110111010011101001111 b=00010010100011100100100000110001 z=10010100100010000110110100100111 z_check=10010100100010000110110100100111
#       1856   z result calculated correct
#       1872   status test PASS
#       1872  clk=1 status=00000000 a=00111000010101111010001111000100 b=00101010011011101001100101110001 z=01110111111011001000010001011110 z_check=01110111111011001000010001011110
#       1872   z result calculated correct
#       1888   status test PASS
#       1888  clk=1 status=00000000 a=01001010100111001111110000011000 b=10000111000110010101111010010001 z=10000001111101000010100101111110 z_check=10000001111101000010100101111110
#       1888   z result calculated correct
#       1904   status test PASS
#       1904  clk=1 status=00100000 a=10101010101001010010011110010110 b=00111110111000100000101011101010 z=00100011010010001111101110000000 z_check=00100011010010001111101110000000
#       1904   z result calculated correct
#       1920   status test PASS
#       1920  clk=1 status=00000000 a=00010100111000100101110000001010 b=00110101110100100101111010000010 z=10010010001111000001100101010000 z_check=10010010001111000001100101010000
#       1920   z result calculated correct
#       1936   status test PASS
#       1936  clk=1 status=00000000 a=11100011110101110111010010010101 b=10111011010000000100011111011000 z=10101010000100011101001111111101 z_check=10101010000100011101001111111101
#       1936   z result calculated correct
#       1952   status test PASS
#       1952  clk=1 status=00000000 a=00011011001001001000110111010100 b=00100000001111001000001110100110 z=00001011001110100000001100010001 z_check=00001011001110100000001100010001
#       1952   z result calculated correct
#       1968   status test PASS
#       1968  clk=1 status=00000000 a=11001001011000000011111101011110 b=10101010110100011000110101110000 z=01011111101000011101001111100111 z_check=01011111101000011101001111100111
#       1968   z result calculated correct
#       1984   status test PASS
#       1984  clk=1 status=00001001 a=01011111001010010001001010001000 b=11001000001111000101000111111101 z=00000000000000000000000000000000 z_check=00000000000000000000000000000000
#       1984   z result calculated correct
#       1984   p1 PASS
#       1984   p5 PASS
#       2000   status test PASS
#       2000  clk=1 status=00000000 a=10001110001011111111000001001011 b=10111100111001011011110010000000 z=00110100101101111000111110100001 z_check=00110100101101111000111110100001
#       2000   z result calculated correct
#       2016   status test PASS
#       2016  clk=1 status=00000000 a=00001010000100001001010000010111 b=01000001011111100010100100000111 z=11100111111110001011111110000100 z_check=11100111111110001011111110000100
#       2016   z result calculated correct
#       2032   status test PASS
#       2032  clk=1 status=00000000 a=01000000101111010001011100010001 b=00000101010100111010011011111110 z=00001011100111011110001110000000 z_check=00001011100111011110001110000000
#       2032   z result calculated correct
#       2048   status test PASS
#       2048  clk=1 status=00000000 a=10110101100100000111100100101000 b=01101110111011111110000110011110 z=00001100000011111000101000011010 z_check=00001100000011111000101000011010
#       2048   z result calculated correct
#       2064   status test PASS
#       2064  clk=1 status=00000000 a=10010101100101110100000111111001 b=10001001011001110011000111100100 z=00000110100111000101010101011100 z_check=00000110100111000101010101011100
#       2064   z result calculated correct
#       2080   status test PASS
#       2080  clk=1 status=00000000 a=10000011000110101000100110110101 b=01110111001011010111101110110010 z=11100101000001110110000001110000 z_check=11100101000001110110000001110000
#       2080   z result calculated correct
#       2096   status test PASS
#       2096  clk=1 status=00001001 a=00010011101101000110100100111011 b=01011111011110111110110000100001 z=00000000000000000000000000000000 z_check=00000000000000000000000000000000
