logResults/qrun_Part2.log
QuestaSim-64 qrun 2023.1 Utility 2023.01 Jan 23 2023
Start time: 18:43:50 on Jun 15,2024
qrun -batch -access=rw+/. -timescale 1ns/1ns -mfcu design.sv testbench.sv -voptargs="+acc=npr" -do " run -all; exit" 
Creating library 'qrun.out/work'.
QuestaSim-64 vlog 2023.1 Compiler 2023.01 Jan 23 2023
Start time: 18:43:50 on Jun 15,2024
vlog -timescale 1ns/1ns -mfcu design.sv testbench.sv -work qrun.out/work -csession=incr -writesessionid "+qrun.out/top_dus" -statslog qrun.out/stats_log 
-- Compiling module fp_mult
-- Compiling module normalize_mult
-- Compiling module round_mult
-- Compiling module exception_mult
-- Compiling module check_mult
-- Compiling module fp_mult_top
-- Compiling module test_status_bits
-- Compiling module test_status_z_combinations
-- Compiling module TestBench

Top level modules:
	TestBench
End time: 18:43:50 on Jun 15,2024, Elapsed time: 0:00:00
Errors: 0, Warnings: 0
QuestaSim-64 vopt 2023.1 Compiler 2023.01 Jan 23 2023
** Warning: (vopt-10587) Some optimizations are turned off because the +acc switch is in effect. This will cause your simulation to run slowly. Please use -access/-debug to maintain needed visibility.
Start time: 18:43:50 on Jun 15,2024
vopt -access=rw+/. -timescale 1ns/1ns -mfcu "+acc=npr" -findtoplevels /home/runner/qrun.out/work+0+ -work qrun.out/work -statslog qrun.out/stats_log -o qrun_opt 

Top level modules:
	TestBench

Analyzing design...
-- Loading module TestBench
-- Loading module fp_mult_top
-- Loading module fp_mult
-- Loading module normalize_mult
-- Loading module round_mult
-- Loading module exception_mult
-- Loading module check_mult
-- Loading module test_status_z_combinations
-- Loading module test_status_bits
Optimizing 9 design-units (inlining 0/9 module instances):
-- Optimizing module TestBench(fast)
-- Optimizing module check_mult(fast)
-- Optimizing module exception_mult(fast)
-- Optimizing module test_status_z_combinations(fast)
-- Optimizing module fp_mult(fast)
-- Optimizing module round_mult(fast)
-- Optimizing module normalize_mult(fast)
-- Optimizing module fp_mult_top(fast)
-- Optimizing module test_status_bits(fast)
Optimized design name is qrun_opt
End time: 18:43:50 on Jun 15,2024, Elapsed time: 0:00:00
Errors: 0, Warnings: 1
# vsim -batch -voptargs="+acc=npr" -lib qrun.out/work -do " run -all; exit" -statslog qrun.out/stats_log qrun_opt -appendlog -l qrun.log -csession=incr 
# Start time: 18:43:50 on Jun 15,2024
# //  Questa Sim-64
# //  Version 2023.1 linux_x86_64 Jan 23 2023
# //
# //  Copyright 1991-2023 Mentor Graphics Corporation
# //  All Rights Reserved.
# //
# //  QuestaSim and its associated documentation contain trade
# //  secrets and commercial or financial information that are the property of
# //  Mentor Graphics Corporation and are privileged, confidential,
# //  and exempt from disclosure under the Freedom of Information Act,
# //  5 U.S.C. Section 552. Furthermore, this information
# //  is prohibited from disclosure under the Trade Secrets Act,
# //  18 U.S.C. Section 1905.
# //
# Loading sv_std.std
# Loading work.TestBench(fast)
# Loading work.fp_mult_top(fast)
# Loading work.fp_mult(fast)
# Loading work.normalize_mult(fast)
# Loading work.round_mult(fast)
# Loading work.exception_mult(fast)
# Loading work.test_status_bits(fast)
# Loading work.test_status_z_combinations(fast)
# Loading work.check_mult(fast)
# 
# run -all
#          0   z result failed
#          0  clk=1 status=xxxxxxxx a=xxxxxxxxxxxxxxxxxxxxxxxxxxxxxxxx b=xxxxxxxxxxxxxxxxxxxxxxxxxxxxxxxx z=xxxxxxxxxxxxxxxxxxxxxxxxxxxxxxxx z_check=xxxxxxxxxxxxxxxxxxxxxxxxxxxxxxxx
#          0   z result calculated correct
#         16   status test PASS
#         16  clk=1 status=00000000 a=00000000000000000000000000000000 b=00000000000000000000000000000000 z=00000000000000000000000000000000 z_check=00000000000000000000000000000000
#         32   status test PASS
#         32  clk=1 status=00000001 a=00000000000000000000000000000000 b=00000000000000000000000000000000 z=00000000000000000000000000000000 z_check=00000000000000000000000000000000
#         32   p1 PASS
#         48   status test PASS
#         48  clk=1 status=00000001 a=00000000000000000000000000000000 b=10000000000000000000000000000000 z=00000000000000000000000000000000 z_check=00000000000000000000000000000000
#         48   p1 PASS
#         64   status test PASS
#         64  clk=1 status=00000001 a=00000000000000000000000000000000 b=01111111100000000000000000000000 z=00000000000000000000000000000000 z_check=00000000000000000000000000000000
#         64   z result calculated correct
#         64   p1 PASS
#         80   status test PASS
#         80  clk=1 status=00000001 a=00000000000000000000000000000000 b=11111111100000000000000000000000 z=10000000000000000000000000000000 z_check=10000000000000000000000000000000
#         80   z result calculated correct
#         80   p1 PASS
#         96   status test PASS
#         96  clk=1 status=00000110 a=00000000000000000000000000000000 b=01111111100100110010000001111010 z=01111111100000000000000000000000 z_check=01111111100000000000000000000000
#         96   p3 PASS
#         96   p2 PASS
#        112   status test PASS
#        112  clk=1 status=00000110 a=00000000000000000000000000000000 b=11111111101100001101101001111110 z=01111111100000000000000000000000 z_check=01111111100000000000000000000000
#        112   p3 PASS
#        112   p2 PASS
#        128   status test PASS
#        128  clk=1 status=00000110 a=00000000000000000000000000000000 b=01111111110011011110111111011010 z=01111111100000000000000000000000 z_check=01111111100000000000000000000000
#        128   p3 PASS
#        128   p2 PASS
#        144   status test PASS
#        144  clk=1 status=00000110 a=00000000000000000000000000000000 b=11111111110100011001111001001110 z=01111111100000000000000000000000 z_check=01111111100000000000000000000000
#        144   p3 PASS
#        144   p2 PASS
#        160   status test PASS
#        160  clk=1 status=00000110 a=00000000000000000000000000000000 b=01110000101100111001101000000010 z=01111111100000000000000000000000 z_check=01111111100000000000000000000000
#        160   p3 PASS
#        160   p2 PASS
#        176   status test PASS
#        176  clk=1 status=00000110 a=00000000000000000000000000000000 b=10111000000111010001011110011011 z=01111111100000000000000000000000 z_check=01111111100000000000000000000000
#        176   z result calculated correct
#        176   p3 PASS
#        176   p2 PASS
#        192   status test PASS
#        192  clk=1 status=00000001 a=00000000000000000000000000000000 b=00000000011101001000000111011001 z=00000000000000000000000000000000 z_check=00000000000000000000000000000000
#        192   z result calculated correct
#        192   p1 PASS
#        208   status test PASS
#        208  clk=1 status=00000001 a=00000000000000000000000000000000 b=10000000001011101000011101001100 z=10000000000000000000000000000000 z_check=10000000000000000000000000000000
#        208   z result calculated correct
#        208   p1 PASS
#        224   status test PASS
#        224  clk=1 status=00000001 a=10000000000000000000000000000000 b=00000000000000000000000000000000 z=00000000000000000000000000000000 z_check=00000000000000000000000000000000
#        224   z result calculated correct
#        224   p1 PASS
#        240   status test PASS
#        240  clk=1 status=00000001 a=10000000000000000000000000000000 b=10000000000000000000000000000000 z=10000000000000000000000000000000 z_check=10000000000000000000000000000000
#        240   p1 PASS
#        256   status test PASS
#        256  clk=1 status=00000001 a=10000000000000000000000000000000 b=01111111100000000000000000000000 z=10000000000000000000000000000000 z_check=10000000000000000000000000000000
#        256   z result calculated correct
#        256   p1 PASS
#        272   status test PASS
#        272  clk=1 status=00000001 a=10000000000000000000000000000000 b=11111111100000000000000000000000 z=00000000000000000000000000000000 z_check=00000000000000000000000000000000
#        272   z result calculated correct
#        272   p1 PASS
#        288   status test PASS
#        288  clk=1 status=00000110 a=10000000000000000000000000000000 b=01111111100100110010000001111010 z=01111111100000000000000000000000 z_check=01111111100000000000000000000000
#        288   p3 PASS
#        288   p2 PASS
#        304   status test PASS
#        304  clk=1 status=00000110 a=10000000000000000000000000000000 b=11111111101100001101101001111110 z=01111111100000000000000000000000 z_check=01111111100000000000000000000000
#        304   p3 PASS
#        304   p2 PASS
#        320   status test PASS
#        320  clk=1 status=00000110 a=10000000000000000000000000000000 b=01111111110011011110111111011010 z=01111111100000000000000000000000 z_check=01111111100000000000000000000000
#        320   p3 PASS
#        320   p2 PASS
#        336   status test PASS
#        336  clk=1 status=00000110 a=10000000000000000000000000000000 b=11111111110100011001111001001110 z=01111111100000000000000000000000 z_check=01111111100000000000000000000000
#        336   p3 PASS
#        336   p2 PASS
#        352   status test PASS
#        352  clk=1 status=00000110 a=10000000000000000000000000000000 b=01110000101100111001101000000010 z=01111111100000000000000000000000 z_check=01111111100000000000000000000000
#        352   p3 PASS
#        352   p2 PASS
#        368   status test PASS
#        368  clk=1 status=00000110 a=10000000000000000000000000000000 b=10111000000111010001011110011011 z=01111111100000000000000000000000 z_check=01111111100000000000000000000000
#        368   z result calculated correct
#        368   p3 PASS
#        368   p2 PASS
#        384   status test PASS
#        384  clk=1 status=00000001 a=10000000000000000000000000000000 b=00000000011101001000000111011001 z=10000000000000000000000000000000 z_check=10000000000000000000000000000000
#        384   z result calculated correct
#        384   p1 PASS
#        400   status test PASS
#        400  clk=1 status=00000001 a=10000000000000000000000000000000 b=10000000001011101000011101001100 z=00000000000000000000000000000000 z_check=00000000000000000000000000000000
#        400   z result calculated correct
#        400   p1 PASS
#        416   status test PASS
#        416  clk=1 status=00000001 a=01111111100000000000000000000000 b=00000000000000000000000000000000 z=10000000000000000000000000000000 z_check=10000000000000000000000000000000
#        416   z result calculated correct
#        416   p1 PASS
#        432   status test PASS
#        432  clk=1 status=00000001 a=01111111100000000000000000000000 b=10000000000000000000000000000000 z=00000000000000000000000000000000 z_check=00000000000000000000000000000000
#        432   z result calculated correct
#        432   p1 PASS
#        448   status test PASS
#        448  clk=1 status=00000110 a=01111111100000000000000000000000 b=01111111100000000000000000000000 z=01111111100000000000000000000000 z_check=01111111100000000000000000000000
#        448   p3 PASS
#        448   p2 PASS
#        464   status test PASS
#        464  clk=1 status=00000110 a=01111111100000000000000000000000 b=11111111100000000000000000000000 z=01111111100000000000000000000000 z_check=01111111100000000000000000000000
#        464   p3 PASS
#        464   p2 PASS
#        480   status test PASS
#        480  clk=1 status=00000010 a=01111111100000000000000000000000 b=01111111100100110010000001111010 z=01111111100000000000000000000000 z_check=01111111100000000000000000000000
#        480   z result calculated correct
#        480   p2 PASS
#        496   status test PASS
#        496  clk=1 status=00000010 a=01111111100000000000000000000000 b=11111111101100001101101001111110 z=11111111100000000000000000000000 z_check=11111111100000000000000000000000
#        496   z result calculated correct
#        496   p2 PASS
#        512   status test PASS
#        512  clk=1 status=00000010 a=01111111100000000000000000000000 b=01111111110011011110111111011010 z=01111111100000000000000000000000 z_check=01111111100000000000000000000000
#        512   z result calculated correct
#        512   p2 PASS
#        528   status test PASS
#        528  clk=1 status=00000010 a=01111111100000000000000000000000 b=11111111110100011001111001001110 z=11111111100000000000000000000000 z_check=11111111100000000000000000000000
#        528   z result calculated correct
#        528   p2 PASS
#        544   status test PASS
#        544  clk=1 status=00000010 a=01111111100000000000000000000000 b=01110000101100111001101000000010 z=01111111100000000000000000000000 z_check=01111111100000000000000000000000
#        544   z result calculated correct
#        544   p2 PASS
#        560   status test PASS
#        560  clk=1 status=00000010 a=01111111100000000000000000000000 b=10111000000111010001011110011011 z=11111111100000000000000000000000 z_check=11111111100000000000000000000000
#        560   z result calculated correct
#        560   p2 PASS
#        576   status test PASS
#        576  clk=1 status=00000010 a=01111111100000000000000000000000 b=00000000011101001000000111011001 z=01111111100000000000000000000000 z_check=01111111100000000000000000000000
#        576   z result calculated correct
#        576   p2 PASS
#        592   status test PASS
#        592  clk=1 status=00000010 a=01111111100000000000000000000000 b=10000000001011101000011101001100 z=11111111100000000000000000000000 z_check=11111111100000000000000000000000
#        592   z result calculated correct
#        592   p2 PASS
#        608   status test PASS
#        608  clk=1 status=00000110 a=11111111100000000000000000000000 b=00000000000000000000000000000000 z=01111111100000000000000000000000 z_check=01111111100000000000000000000000
#        608   p3 PASS
#        608   p2 PASS
#        624   status test PASS
#        624  clk=1 status=00000110 a=11111111100000000000000000000000 b=10000000000000000000000000000000 z=01111111100000000000000000000000 z_check=01111111100000000000000000000000
#        624   p3 PASS
#        624   p2 PASS
#        640   status test PASS
#        640  clk=1 status=00000110 a=11111111100000000000000000000000 b=01111111100000000000000000000000 z=01111111100000000000000000000000 z_check=01111111100000000000000000000000
#        640   p3 PASS
#        640   p2 PASS
#        656   status test PASS
#        656  clk=1 status=00000110 a=11111111100000000000000000000000 b=11111111100000000000000000000000 z=01111111100000000000000000000000 z_check=01111111100000000000000000000000
#        656   z result calculated correct
#        656   p3 PASS
#        656   p2 PASS
#        672   status test PASS
#        672  clk=1 status=00000010 a=11111111100000000000000000000000 b=01111111100100110010000001111010 z=11111111100000000000000000000000 z_check=11111111100000000000000000000000
#        672   z result calculated correct
#        672   p2 PASS
#        688   status test PASS
#        688  clk=1 status=00000010 a=11111111100000000000000000000000 b=11111111101100001101101001111110 z=01111111100000000000000000000000 z_check=01111111100000000000000000000000
#        688   z result calculated correct
#        688   p2 PASS
#        704   status test PASS
#        704  clk=1 status=00000010 a=11111111100000000000000000000000 b=01111111110011011110111111011010 z=11111111100000000000000000000000 z_check=11111111100000000000000000000000
#        704   z result calculated correct
#        704   p2 PASS
#        720   status test PASS
#        720  clk=1 status=00000010 a=11111111100000000000000000000000 b=11111111110100011001111001001110 z=01111111100000000000000000000000 z_check=01111111100000000000000000000000
#        720   z result calculated correct
#        720   p2 PASS
#        736   status test PASS
#        736  clk=1 status=00000010 a=11111111100000000000000000000000 b=01110000101100111001101000000010 z=11111111100000000000000000000000 z_check=11111111100000000000000000000000
#        736   z result calculated correct
#        736   p2 PASS
#        752   status test PASS
#        752  clk=1 status=00000010 a=11111111100000000000000000000000 b=10111000000111010001011110011011 z=01111111100000000000000000000000 z_check=01111111100000000000000000000000
#        752   z result calculated correct
#        752   p2 PASS
#        768   status test PASS
#        768  clk=1 status=00000010 a=11111111100000000000000000000000 b=00000000011101001000000111011001 z=11111111100000000000000000000000 z_check=11111111100000000000000000000000
#        768   z result calculated correct
#        768   p2 PASS
#        784   status test PASS
#        784  clk=1 status=00000010 a=11111111100000000000000000000000 b=10000000001011101000011101001100 z=01111111100000000000000000000000 z_check=01111111100000000000000000000000
#        784   p2 PASS
#        800   status test PASS
#        800  clk=1 status=00000110 a=01111111100100110010000001111010 b=00000000000000000000000000000000 z=01111111100000000000000000000000 z_check=01111111100000000000000000000000
#        800   p3 PASS
#        800   p2 PASS
#        816   status test PASS
#        816  clk=1 status=00000110 a=01111111100100110010000001111010 b=10000000000000000000000000000000 z=01111111100000000000000000000000 z_check=01111111100000000000000000000000
#        816   p3 PASS
#        816   p2 PASS
#        832   status test PASS
#        832  clk=1 status=00000110 a=01111111100100110010000001111010 b=01111111100000000000000000000000 z=01111111100000000000000000000000 z_check=01111111100000000000000000000000
#        832   p3 PASS
#        832   p2 PASS
#        848   status test PASS
#        848  clk=1 status=00000110 a=01111111100100110010000001111010 b=11111111100000000000000000000000 z=01111111100000000000000000000000 z_check=01111111100000000000000000000000
#        848   p3 PASS
#        848   p2 PASS
#        864   status test PASS
#        864  clk=1 status=00000010 a=01111111100100110010000001111010 b=01111111100100110010000001111010 z=01111111100000000000000000000000 z_check=01111111100000000000000000000000
#        864   z result calculated correct
#        864   p2 PASS
#        880   status test PASS
#        880  clk=1 status=00000010 a=01111111100100110010000001111010 b=11111111101100001101101001111110 z=11111111100000000000000000000000 z_check=11111111100000000000000000000000
#        880   z result calculated correct
#        880   p2 PASS
#        896   status test PASS
#        896  clk=1 status=00000010 a=01111111100100110010000001111010 b=01111111110011011110111111011010 z=01111111100000000000000000000000 z_check=01111111100000000000000000000000
#        896   z result calculated correct
#        896   p2 PASS
#        912   status test PASS
#        912  clk=1 status=00000010 a=01111111100100110010000001111010 b=11111111110100011001111001001110 z=11111111100000000000000000000000 z_check=11111111100000000000000000000000
#        912   z result calculated correct
#        912   p2 PASS
#        928   status test PASS
#        928  clk=1 status=00000010 a=01111111100100110010000001111010 b=01110000101100111001101000000010 z=01111111100000000000000000000000 z_check=01111111100000000000000000000000
#        928   z result calculated correct
#        928   p2 PASS
#        944   status test PASS
#        944  clk=1 status=00000010 a=01111111100100110010000001111010 b=10111000000111010001011110011011 z=11111111100000000000000000000000 z_check=11111111100000000000000000000000
#        944   z result calculated correct
#        944   p2 PASS
#        960   status test PASS
#        960  clk=1 status=00000010 a=01111111100100110010000001111010 b=00000000011101001000000111011001 z=01111111100000000000000000000000 z_check=01111111100000000000000000000000
#        960   z result calculated correct
#        960   p2 PASS
#        976   status test PASS
#        976  clk=1 status=00000010 a=01111111100100110010000001111010 b=10000000001011101000011101001100 z=11111111100000000000000000000000 z_check=11111111100000000000000000000000
#        976   z result calculated correct
#        976   p2 PASS
#        992   status test PASS
#        992  clk=1 status=00000110 a=11111111101100001101101001111110 b=00000000000000000000000000000000 z=01111111100000000000000000000000 z_check=01111111100000000000000000000000
#        992   p3 PASS
#        992   p2 PASS
#       1008   status test PASS
#       1008  clk=1 status=00000110 a=11111111101100001101101001111110 b=10000000000000000000000000000000 z=01111111100000000000000000000000 z_check=01111111100000000000000000000000
#       1008   p3 PASS
#       1008   p2 PASS
#       1024   status test PASS
#       1024  clk=1 status=00000110 a=11111111101100001101101001111110 b=01111111100000000000000000000000 z=01111111100000000000000000000000 z_check=01111111100000000000000000000000
#       1024   p3 PASS
#       1024   p2 PASS
#       1040   status test PASS
#       1040  clk=1 status=00000110 a=11111111101100001101101001111110 b=11111111100000000000000000000000 z=01111111100000000000000000000000 z_check=01111111100000000000000000000000
#       1040   z result calculated correct
#       1040   p3 PASS
#       1040   p2 PASS
#       1056   status test PASS
#       1056  clk=1 status=00000010 a=11111111101100001101101001111110 b=01111111100100110010000001111010 z=11111111100000000000000000000000 z_check=11111111100000000000000000000000
#       1056   z result calculated correct
#       1056   p2 PASS
#       1072   status test PASS
#       1072  clk=1 status=00000010 a=11111111101100001101101001111110 b=11111111101100001101101001111110 z=01111111100000000000000000000000 z_check=01111111100000000000000000000000
#       1072   z result calculated correct
#       1072   p2 PASS
#       1088   status test PASS
#       1088  clk=1 status=00000010 a=11111111101100001101101001111110 b=01111111110011011110111111011010 z=11111111100000000000000000000000 z_check=11111111100000000000000000000000
#       1088   z result calculated correct
#       1088   p2 PASS
#       1104   status test PASS
#       1104  clk=1 status=00000010 a=11111111101100001101101001111110 b=11111111110100011001111001001110 z=01111111100000000000000000000000 z_check=01111111100000000000000000000000
#       1104   z result calculated correct
#       1104   p2 PASS
#       1120   status test PASS
#       1120  clk=1 status=00000010 a=11111111101100001101101001111110 b=01110000101100111001101000000010 z=11111111100000000000000000000000 z_check=11111111100000000000000000000000
#       1120   z result calculated correct
#       1120   p2 PASS
#       1136   status test PASS
#       1136  clk=1 status=00000010 a=11111111101100001101101001111110 b=10111000000111010001011110011011 z=01111111100000000000000000000000 z_check=01111111100000000000000000000000
#       1136   z result calculated correct
#       1136   p2 PASS
#       1152   status test PASS
#       1152  clk=1 status=00000010 a=11111111101100001101101001111110 b=00000000011101001000000111011001 z=11111111100000000000000000000000 z_check=11111111100000000000000000000000
#       1152   z result calculated correct
#       1152   p2 PASS
#       1168   status test PASS
#       1168  clk=1 status=00000010 a=11111111101100001101101001111110 b=10000000001011101000011101001100 z=01111111100000000000000000000000 z_check=01111111100000000000000000000000
#       1168   p2 PASS
#       1184   status test PASS
#       1184  clk=1 status=00000110 a=01111111110011011110111111011010 b=00000000000000000000000000000000 z=01111111100000000000000000000000 z_check=01111111100000000000000000000000
#       1184   p3 PASS
#       1184   p2 PASS
#       1200   status test PASS
#       1200  clk=1 status=00000110 a=01111111110011011110111111011010 b=10000000000000000000000000000000 z=01111111100000000000000000000000 z_check=01111111100000000000000000000000
#       1200   p3 PASS
#       1200   p2 PASS
#       1216   status test PASS
#       1216  clk=1 status=00000110 a=01111111110011011110111111011010 b=01111111100000000000000000000000 z=01111111100000000000000000000000 z_check=01111111100000000000000000000000
#       1216   p3 PASS
#       1216   p2 PASS
#       1232   status test PASS
#       1232  clk=1 status=00000110 a=01111111110011011110111111011010 b=11111111100000000000000000000000 z=01111111100000000000000000000000 z_check=01111111100000000000000000000000
#       1232   p3 PASS
#       1232   p2 PASS
#       1248   status test PASS
#       1248  clk=1 status=00000010 a=01111111110011011110111111011010 b=01111111100100110010000001111010 z=01111111100000000000000000000000 z_check=01111111100000000000000000000000
#       1248   z result calculated correct
#       1248   p2 PASS
#       1264   status test PASS
#       1264  clk=1 status=00000010 a=01111111110011011110111111011010 b=11111111101100001101101001111110 z=11111111100000000000000000000000 z_check=11111111100000000000000000000000
#       1264   z result calculated correct
#       1264   p2 PASS
#       1280   status test PASS
#       1280  clk=1 status=00000010 a=01111111110011011110111111011010 b=01111111110011011110111111011010 z=01111111100000000000000000000000 z_check=01111111100000000000000000000000
#       1280   z result calculated correct
#       1280   p2 PASS
#       1296   status test PASS
#       1296  clk=1 status=00000010 a=01111111110011011110111111011010 b=11111111110100011001111001001110 z=11111111100000000000000000000000 z_check=11111111100000000000000000000000
#       1296   z result calculated correct
#       1296   p2 PASS
#       1312   status test PASS
#       1312  clk=1 status=00000010 a=01111111110011011110111111011010 b=01110000101100111001101000000010 z=01111111100000000000000000000000 z_check=01111111100000000000000000000000
#       1312   z result calculated correct
#       1312   p2 PASS
#       1328   status test PASS
#       1328  clk=1 status=00000010 a=01111111110011011110111111011010 b=10111000000111010001011110011011 z=11111111100000000000000000000000 z_check=11111111100000000000000000000000
#       1328   z result calculated correct
#       1328   p2 PASS
#       1344   status test PASS
#       1344  clk=1 status=00000010 a=01111111110011011110111111011010 b=00000000011101001000000111011001 z=01111111100000000000000000000000 z_check=01111111100000000000000000000000
#       1344   z result calculated correct
#       1344   p2 PASS
#       1360   status test PASS
#       1360  clk=1 status=00000010 a=01111111110011011110111111011010 b=10000000001011101000011101001100 z=11111111100000000000000000000000 z_check=11111111100000000000000000000000
#       1360   z result calculated correct
#       1360   p2 PASS
#       1376   status test PASS
#       1376  clk=1 status=00000110 a=11111111110100011001111001001110 b=00000000000000000000000000000000 z=01111111100000000000000000000000 z_check=01111111100000000000000000000000
#       1376   p3 PASS
#       1376   p2 PASS
#       1392   status test PASS
#       1392  clk=1 status=00000110 a=11111111110100011001111001001110 b=10000000000000000000000000000000 z=01111111100000000000000000000000 z_check=01111111100000000000000000000000
#       1392   p3 PASS
#       1392   p2 PASS
#       1408   status test PASS
#       1408  clk=1 status=00000110 a=11111111110100011001111001001110 b=01111111100000000000000000000000 z=01111111100000000000000000000000 z_check=01111111100000000000000000000000
#       1408   p3 PASS
#       1408   p2 PASS
#       1424   status test PASS
#       1424  clk=1 status=00000110 a=11111111110100011001111001001110 b=11111111100000000000000000000000 z=01111111100000000000000000000000 z_check=01111111100000000000000000000000
#       1424   z result calculated correct
#       1424   p3 PASS
#       1424   p2 PASS
#       1440   status test PASS
#       1440  clk=1 status=00000010 a=11111111110100011001111001001110 b=01111111100100110010000001111010 z=11111111100000000000000000000000 z_check=11111111100000000000000000000000
#       1440   z result calculated correct
#       1440   p2 PASS
#       1456   status test PASS
#       1456  clk=1 status=00000010 a=11111111110100011001111001001110 b=11111111101100001101101001111110 z=01111111100000000000000000000000 z_check=01111111100000000000000000000000
#       1456   z result calculated correct
#       1456   p2 PASS
#       1472   status test PASS
#       1472  clk=1 status=00000010 a=11111111110100011001111001001110 b=01111111110011011110111111011010 z=11111111100000000000000000000000 z_check=11111111100000000000000000000000
#       1472   z result calculated correct
#       1472   p2 PASS
#       1488   status test PASS
#       1488  clk=1 status=00000010 a=11111111110100011001111001001110 b=11111111110100011001111001001110 z=01111111100000000000000000000000 z_check=01111111100000000000000000000000
#       1488   z result calculated correct
#       1488   p2 PASS
#       1504   status test PASS
#       1504  clk=1 status=00000010 a=11111111110100011001111001001110 b=01110000101100111001101000000010 z=11111111100000000000000000000000 z_check=11111111100000000000000000000000
#       1504   z result calculated correct
#       1504   p2 PASS
#       1520   status test PASS
#       1520  clk=1 status=00000010 a=11111111110100011001111001001110 b=10111000000111010001011110011011 z=01111111100000000000000000000000 z_check=01111111100000000000000000000000
#       1520   z result calculated correct
#       1520   p2 PASS
#       1536   status test PASS
#       1536  clk=1 status=00000010 a=11111111110100011001111001001110 b=00000000011101001000000111011001 z=11111111100000000000000000000000 z_check=11111111100000000000000000000000
#       1536   z result calculated correct
#       1536   p2 PASS
#       1552   status test PASS
#       1552  clk=1 status=00000010 a=11111111110100011001111001001110 b=10000000001011101000011101001100 z=01111111100000000000000000000000 z_check=01111111100000000000000000000000
#       1552   p2 PASS
#       1568   status test PASS
#       1568  clk=1 status=00000110 a=01110000101100111001101000000010 b=00000000000000000000000000000000 z=01111111100000000000000000000000 z_check=01111111100000000000000000000000
#       1568   p3 PASS
#       1568   p2 PASS
#       1584   status test PASS
#       1584  clk=1 status=00000110 a=01110000101100111001101000000010 b=10000000000000000000000000000000 z=01111111100000000000000000000000 z_check=01111111100000000000000000000000
#       1584   z result calculated correct
#       1584   p3 PASS
#       1584   p2 PASS
#       1600   status test PASS
#       1600  clk=1 status=00000001 a=01110000101100111001101000000010 b=01111111100000000000000000000000 z=00000000000000000000000000000000 z_check=00000000000000000000000000000000
#       1600   z result calculated correct
#       1600   p1 PASS
#       1616   status test PASS
#       1616  clk=1 status=00000001 a=01110000101100111001101000000010 b=11111111100000000000000000000000 z=10000000000000000000000000000000 z_check=10000000000000000000000000000000
#       1616   z result calculated correct
#       1616   p1 PASS
#       1632   status test PASS
#       1632  clk=1 status=00000010 a=01110000101100111001101000000010 b=01111111100100110010000001111010 z=01111111100000000000000000000000 z_check=01111111100000000000000000000000
#       1632   z result calculated correct
#       1632   p2 PASS
#       1648   status test PASS
#       1648  clk=1 status=00000010 a=01110000101100111001101000000010 b=11111111101100001101101001111110 z=11111111100000000000000000000000 z_check=11111111100000000000000000000000
#       1648   z result calculated correct
#       1648   p2 PASS
#       1664   status test PASS
#       1664  clk=1 status=00000010 a=01110000101100111001101000000010 b=01111111110011011110111111011010 z=01111111100000000000000000000000 z_check=01111111100000000000000000000000
#       1664   z result calculated correct
#       1664   p2 PASS
#       1680   status test PASS
#       1680  clk=1 status=00000010 a=01110000101100111001101000000010 b=11111111110100011001111001001110 z=11111111100000000000000000000000 z_check=11111111100000000000000000000000
#       1680   z result calculated correct
#       1680   p2 PASS
#       1696   status test PASS
#       1696  clk=1 status=00000010 a=01110000101100111001101000000010 b=01110000101100111001101000000010 z=01111111100000000000000000000000 z_check=01111111100000000000000000000000
#       1696   z result calculated correct
#       1696   p2 PASS
#       1712   status test PASS
#       1712  clk=1 status=00000010 a=01110000101100111001101000000010 b=10111000000111010001011110011011 z=11111111100000000000000000000000 z_check=11111111100000000000000000000000
#       1712   z result calculated correct
#       1712   p2 PASS
#       1728   status test PASS
#       1728  clk=1 status=00010010 a=01110000101100111001101000000010 b=00000000011101001000000111011001 z=01111111100000000000000000000000 z_check=01111111100000000000000000000000
#       1728   z result calculated correct
#       1728   p4 PASS
#       1728   p2 PASS
#       1744   status test PASS
#       1744  clk=1 status=00000000 a=01110000101100111001101000000010 b=10000000001011101000011101001100 z=11101001010111000110110000000110 z_check=11101001010111000110110000000110
#       1744   z result calculated correct
#       1760   status test PASS
#       1760  clk=1 status=00000001 a=10111000000111010001011110011011 b=00000000000000000000000000000000 z=00000000000000000000000000000000 z_check=00000000000000000000000000000000
#       1760   z result calculated correct
#       1760   p1 PASS
#       1776   status test PASS
#       1776  clk=1 status=00000001 a=10111000000111010001011110011011 b=10000000000000000000000000000000 z=10000000000000000000000000000000 z_check=10000000000000000000000000000000
#       1776   p1 PASS
#       1792   status test PASS
#       1792  clk=1 status=00000001 a=10111000000111010001011110011011 b=01111111100000000000000000000000 z=10000000000000000000000000000000 z_check=10000000000000000000000000000000
#       1792   z result calculated correct
#       1792   p1 PASS
#       1808   status test PASS
#       1808  clk=1 status=00000001 a=10111000000111010001011110011011 b=11111111100000000000000000000000 z=00000000000000000000000000000000 z_check=00000000000000000000000000000000
#       1808   z result calculated correct
#       1808   p1 PASS
#       1824   status test PASS
#       1824  clk=1 status=00000010 a=10111000000111010001011110011011 b=01111111100100110010000001111010 z=11111111100000000000000000000000 z_check=11111111100000000000000000000000
#       1824   z result calculated correct
#       1824   p2 PASS
#       1840   status test PASS
#       1840  clk=1 status=00000010 a=10111000000111010001011110011011 b=11111111101100001101101001111110 z=01111111100000000000000000000000 z_check=01111111100000000000000000000000
#       1840   z result calculated correct
#       1840   p2 PASS
#       1856   status test PASS
#       1856  clk=1 status=00000010 a=10111000000111010001011110011011 b=01111111110011011110111111011010 z=11111111100000000000000000000000 z_check=11111111100000000000000000000000
#       1856   z result calculated correct
#       1856   p2 PASS
#       1872   status test PASS
#       1872  clk=1 status=00000010 a=10111000000111010001011110011011 b=11111111110100011001111001001110 z=01111111100000000000000000000000 z_check=01111111100000000000000000000000
#       1872   z result calculated correct
#       1872   p2 PASS
#       1888   status test PASS
#       1888  clk=1 status=00000010 a=10111000000111010001011110011011 b=01110000101100111001101000000010 z=11111111100000000000000000000000 z_check=11111111100000000000000000000000
#       1888   z result calculated correct
#       1888   p2 PASS
#       1904   status test PASS
#       1904  clk=1 status=00000010 a=10111000000111010001011110011011 b=10111000000111010001011110011011 z=01111111100000000000000000000000 z_check=01111111100000000000000000000000
#       1904   z result calculated correct
#       1904   p2 PASS
#       1920   status test PASS
#       1920  clk=1 status=00000000 a=10111000000111010001011110011011 b=00000000011101001000000111011001 z=11101001010111000110110000000110 z_check=11101001010111000110110000000110
#       1920   z result calculated correct
#       1936   status test PASS
#       1936  clk=1 status=00000000 a=10111000000111010001011110011011 b=10000000001011101000011101001100 z=00110000110000001100101111101101 z_check=00110000110000001100101111101101
#       1936   z result calculated correct
#       1952   status test PASS
#       1952  clk=1 status=00000001 a=00000000011101001000000111011001 b=00000000000000000000000000000000 z=10000000000000000000000000000000 z_check=10000000000000000000000000000000
#       1952   z result calculated correct
#       1952   p1 PASS
#       1968   status test PASS
#       1968  clk=1 status=00000001 a=00000000011101001000000111011001 b=10000000000000000000000000000000 z=00000000000000000000000000000000 z_check=00000000000000000000000000000000
#       1968   p1 PASS
#       1984   status test PASS
